…
# Number of simulations
N <- 1000

# Simulate data
simulated_data <- tibble(
  sim_id = 1:N
) %>%
  mutate(
    data = map(sim_id, ~ generate_data(n = 100, beta0 = 1, beta1 = 2, sigma = 1)) # Generate datasets
  )

# Take a look
simulated_data
#> # A tibble: 1,000 × 2
#>     sim_id data              
#>      <int> <list>            
#>   1      1 <tibble [100 × 2]>
#>   2      2 <tibble [100 × 2]>
#>   3      3 <tibble [100 × 2]>
#>   4      4 <tibble [100 × 2]>
#>   5      5 <tibble [100 × 2]>
#>   6      6 <tibble [100 × 2]>
#>   7      7 <tibble [100 × 2]>
#>   8      8 <tibble [100 × 2]>
#>   9      9 <tibble [100 × 2]>
#>  10     10 <tibble [100 × 2]>
#>  # ℹ 990 more rows
#>  # ℹ Use `print(n = ...)` to see more rows
```

Use `purrr::map()` to fit a linear model to each entry of `data` and store the results in a list-valued column `results`. Then unnest to combine all results into a single table.

```{r}
# Fit model to each simulated dataset
simulation_results <- simulated_data %>%
  mutate(
   results = map(data, fit_model) # Apply the model
  ) %>%
  unnest(results) # Combine all results into a single table

## Take a look
simulation_results
#> # A tibble: 1,000 × 4
#>    sim_id data               beta0_hat beta1_hat
#>     <int> <list>                 <dbl>     <dbl>
#>  1      1 <tibble [100 × 2]>     0.897      1.95
#>  2      2 <tibble [100 × 2]>     0.970      1.95
#>  3      3 <tibble [100 × 2]>     0.937      2.20
#>  4      4 <tibble [100 × 2]>     1.11       2.00
#>  5      5 <tibble [100 × 2]>     0.983      1.98
#>  6      6 <tibble [100 × 2]>     0.979      2.02
#>  7      7 <tibble [100 × 2]>     0.940      1.99
#>  8      8 <tibble [100 × 2]>     1.04       1.96
#>  9      9 <tibble [100 × 2]>     1.03       1.98
#> 10     10 <tibble [100 × 2]>     1.08       1.94
#> # ℹ 990 more rows
#> # ℹ Use `print(n = ...)` to see more rows
```
…
